{
  "spriteset": "/resources/images/sprites.tsx",
  "sprite_idx": 5,
  "smooth": true,
  "static": true,
  "size": [ 1500.0, 400.0 ],
  "origin": [ 750.0, 200.0 ],
  "orientation": 0.0,
  "depth": 0.001
}
